%YAML 1.1
%TAG !u! tag:unity3d.com,2011:
--- !u!1001 &7670271951216597504
PrefabInstance:
  m_ObjectHideFlags: 0
  serializedVersion: 2
  m_Modification:
    m_TransformParent: {fileID: 0}
    m_Modifications:
    - target: {fileID: 4729763372987890791, guid: 17a9912b597400d44a13e92204f783fe,
        type: 3}
      propertyPath: m_Name
      value: Tower 1
      objectReference: {fileID: 0}
    - target: {fileID: 2787891448320249946, guid: 17a9912b597400d44a13e92204f783fe,
        type: 3}
      propertyPath: _shootPower
      value: 2
      objectReference: {fileID: 0}
    - target: {fileID: 2787891448320249946, guid: 17a9912b597400d44a13e92204f783fe,
        type: 3}
      propertyPath: _shootDelay
      value: 3
      objectReference: {fileID: 0}
    - target: {fileID: 2787891448320249946, guid: 17a9912b597400d44a13e92204f783fe,
        type: 3}
      propertyPath: _towerPlace
      value: 
      objectReference: {fileID: 3157367524856751712}
    - target: {fileID: 2787891448320249946, guid: 17a9912b597400d44a13e92204f783fe,
        type: 3}
      propertyPath: _towerHead
      value: 
      objectReference: {fileID: 3157367526025037294}
    - target: {fileID: 2787891448320249946, guid: 17a9912b597400d44a13e92204f783fe,
        type: 3}
      propertyPath: _bulletPrefab
      value: 
      objectReference: {fileID: 7761010905513670888, guid: 9cad1ad964728724eaa3f8901c5ff727,
        type: 3}
    - target: {fileID: 4729763372987890785, guid: 17a9912b597400d44a13e92204f783fe,
        type: 3}
      propertyPath: m_LocalPosition.x
      value: 0
      objectReference: {fileID: 0}
    - target: {fileID: 4729763372987890785, guid: 17a9912b597400d44a13e92204f783fe,
        type: 3}
      propertyPath: m_LocalPosition.y
      value: 0
      objectReference: {fileID: 0}
    - target: {fileID: 4729763372987890785, guid: 17a9912b597400d44a13e92204f783fe,
        type: 3}
      propertyPath: m_LocalPosition.z
      value: 0
      objectReference: {fileID: 0}
    - target: {fileID: 4729763372987890785, guid: 17a9912b597400d44a13e92204f783fe,
        type: 3}
      propertyPath: m_LocalRotation.x
      value: 0
      objectReference: {fileID: 0}
    - target: {fileID: 4729763372987890785, guid: 17a9912b597400d44a13e92204f783fe,
        type: 3}
      propertyPath: m_LocalRotation.y
      value: 0
      objectReference: {fileID: 0}
    - target: {fileID: 4729763372987890785, guid: 17a9912b597400d44a13e92204f783fe,
        type: 3}
      propertyPath: m_LocalRotation.z
      value: 0
      objectReference: {fileID: 0}
    - target: {fileID: 4729763372987890785, guid: 17a9912b597400d44a13e92204f783fe,
        type: 3}
      propertyPath: m_LocalRotation.w
      value: 1
      objectReference: {fileID: 0}
    - target: {fileID: 4729763372987890785, guid: 17a9912b597400d44a13e92204f783fe,
        type: 3}
      propertyPath: m_RootOrder
      value: 0
      objectReference: {fileID: 0}
    - target: {fileID: 4729763372987890785, guid: 17a9912b597400d44a13e92204f783fe,
        type: 3}
      propertyPath: m_LocalEulerAnglesHint.x
      value: 0
      objectReference: {fileID: 0}
    - target: {fileID: 4729763372987890785, guid: 17a9912b597400d44a13e92204f783fe,
        type: 3}
      propertyPath: m_LocalEulerAnglesHint.y
      value: 0
      objectReference: {fileID: 0}
    - target: {fileID: 4729763372987890785, guid: 17a9912b597400d44a13e92204f783fe,
        type: 3}
      propertyPath: m_LocalEulerAnglesHint.z
      value: 0
      objectReference: {fileID: 0}
    m_RemovedComponents: []
  m_SourcePrefab: {fileID: 100100000, guid: 17a9912b597400d44a13e92204f783fe, type: 3}
--- !u!212 &3157367524856751712 stripped
SpriteRenderer:
  m_CorrespondingSourceObject: {fileID: 4729763372987890784, guid: 17a9912b597400d44a13e92204f783fe,
    type: 3}
  m_PrefabInstance: {fileID: 7670271951216597504}
  m_PrefabAsset: {fileID: 0}
--- !u!212 &3157367526025037294 stripped
SpriteRenderer:
  m_CorrespondingSourceObject: {fileID: 4729763371819982830, guid: 17a9912b597400d44a13e92204f783fe,
    type: 3}
  m_PrefabInstance: {fileID: 7670271951216597504}
  m_PrefabAsset: {fileID: 0}
